
Dataset name: ./datasets/votes.arff
Number of instances: 461
Number of attributes: 17
Learning algorithm: perceptron
Evaluation method: random

Calculating accuracy on a random hold-out set...
Percentage used for training: 0.7
Percentage used for testing: 0.30000000000000004

**Perceptron Data**
Learning Rate:
	0.1
Insignificant Ephocs Max:
	5
Significant Accuracy:
	1.0%
(Ephocs, Misclassification)
	0, 0.10559006211180122
	1, 0.05590062111801242
	2, 0.05900621118012417
	3, 0.05590062111801242
	4, 0.06832298136645965
	5, 0.0496894409937888
	6, 0.04347826086956519
	7, 0.10559006211180122
	8, 0.0496894409937888
	9, 0.04658385093167705
	10, 0.09627329192546585
	11, 0.04037267080745344
	12, 0.05900621118012417
	13, 0.0496894409937888
	14, 0.04658385093167705
	15, 0.10869565217391308
	16, 0.06521739130434778
	17, 0.04347826086956519
	18, 0.037267080745341574
	19, 0.04658385093167705
	20, 0.09316770186335399
	21, 0.052795031055900665
	22, 0.17701863354037262
	23, 0.0496894409937888
	24, 0.05900621118012417
	25, 0.08385093167701863
	26, 0.04037267080745344
	27, 0.08385093167701863
	28, 0.037267080745341574
	29, 0.06211180124223603
	30, 0.02795031055900621
	31, 0.04658385093167705
	32, 0.05900621118012417
	33, 0.04037267080745344
	34, 0.04037267080745344
	35, 0.0714285714285714
	36, 0.052795031055900665
	37, 0.04037267080745344
	38, 0.03416149068322982
	39, 0.04347826086956519
	40, 0.03416149068322982
	41, 0.04037267080745344
	42, 0.04658385093167705
	43, 0.04347826086956519
Number of Epochs: 
	43
Weights:
	0) 0.09999999999999998
	1) -0.20000000000000004
	2) -0.8999999999999999
	3) 2.500000000000001
	4) 0.8999999999999999
	5) -0.4
	6) 0.9999999999999999
	7) 0.7
	8) -1.3
	9) 0.7
	10) -1.0999999999999999
	11) -0.20000000000000004
	12) 0.30000000000000004
	13) 0.4
	14) -0.7
	15) 0.20000000000000004
	16) -2.0000000000000004
**End Perceptron Data**

Time to train (in seconds): 0.029
Training set accuracy: 0.9565217391304348
Test set accuracy: 0.9928057553956835

Confusion matrix: (Row=target value, Col=predicted value)
@RELATION Untitled
@ATTRIBUTE 'democrat' CONTINUOUS
@ATTRIBUTE 'republican' CONTINUOUS
@DATA
88.0, 0.0
1.0, 50.0


