
Dataset name: ./datasets/votes.arff
Number of instances: 461
Number of attributes: 17
Learning algorithm: perceptron
Evaluation method: random

Calculating accuracy on a random hold-out set...
Percentage used for training: 0.7
Percentage used for testing: 0.30000000000000004

**Perceptron Data**
Learning Rate:
	0.1
Insignificant Ephocs Max:
	5
Significant Accuracy:
	1.0%
(Ephocs, Misclassification)
	0, 0.04037267080745344
	1, 0.06832298136645965
	2, 0.04037267080745344
	3, 0.04347826086956519
	4, 0.037267080745341574
	5, 0.04037267080745344
	6, 0.05900621118012417
	7, 0.1273291925465838
	8, 0.05900621118012417
	9, 0.1273291925465838
	10, 0.037267080745341574
	11, 0.037267080745341574
	12, 0.04658385093167705
	13, 0.08695652173913049
	14, 0.02795031055900621
	15, 0.0714285714285714
	16, 0.06521739130434778
	17, 0.03105590062111796
	18, 0.0496894409937888
	19, 0.04037267080745344
	20, 0.0993788819875776
	21, 0.052795031055900665
	22, 0.04658385093167705
	23, 0.03105590062111796
	24, 0.03416149068322982
	25, 0.04658385093167705
	26, 0.052795031055900665
	27, 0.0496894409937888
	28, 0.06211180124223603
	29, 0.02795031055900621
	30, 0.03416149068322982
	31, 0.03416149068322982
	32, 0.024844720496894457
	33, 0.03105590062111796
	34, 0.02795031055900621
	35, 0.04658385093167705
	36, 0.04037267080745344
	37, 0.04347826086956519
	38, 0.052795031055900665
	39, 0.024844720496894457
	40, 0.04658385093167705
	41, 0.02795031055900621
	42, 0.03105590062111796
	43, 0.06521739130434778
	44, 0.04347826086956519
	45, 0.06521739130434778
	46, 0.03105590062111796
	47, 0.04037267080745344
	48, 0.05900621118012417
	49, 0.06211180124223603
	50, 0.03105590062111796
	51, 0.052795031055900665
	52, 0.03416149068322982
	53, 0.03105590062111796
	54, 0.03416149068322982
	55, 0.05590062111801242
	56, 0.10248447204968947
	57, 0.0714285714285714
	58, 0.09006211180124224
	59, 0.05590062111801242
	60, 0.05900621118012417
	61, 0.037267080745341574
	62, 0.04658385093167705
	63, 0.06211180124223603
	64, 0.03105590062111796
	65, 0.02795031055900621
	66, 0.037267080745341574
	67, 0.052795031055900665
	68, 0.03105590062111796
	69, 0.18012422360248448
	70, 0.052795031055900665
	71, 0.1211180124223602
	72, 0.03416149068322982
	73, 0.04347826086956519
	74, 0.03105590062111796
	75, 0.04658385093167705
	76, 0.0496894409937888
	77, 0.052795031055900665
	78, 0.052795031055900665
	79, 0.03105590062111796
	80, 0.03105590062111796
	81, 0.04037267080745344
	82, 0.04037267080745344
	83, 0.03105590062111796
	84, 0.05900621118012417
	85, 0.03416149068322982
	86, 0.0496894409937888
	87, 0.03416149068322982
	88, 0.04658385093167705
	89, 0.05900621118012417
	90, 0.037267080745341574
	91, 0.037267080745341574
	92, 0.0496894409937888
	93, 0.05590062111801242
	94, 0.02795031055900621
	95, 0.03105590062111796
	96, 0.03416149068322982
	97, 0.04347826086956519
	98, 0.037267080745341574
	99, 0.04347826086956519
	100, 0.04347826086956519
	101, 0.06211180124223603
	102, 0.037267080745341574
	103, 0.037267080745341574
	104, 0.07453416149068326
	105, 0.06832298136645965
	106, 0.024844720496894457
	107, 0.0714285714285714
	108, 0.06832298136645965
	109, 0.03416149068322982
	110, 0.04658385093167705
	111, 0.04347826086956519
	112, 0.07453416149068326
	113, 0.05590062111801242
	114, 0.037267080745341574
	115, 0.0496894409937888
	116, 0.05900621118012417
	117, 0.03416149068322982
	118, 0.0496894409937888
	119, 0.05590062111801242
	120, 0.09316770186335399
	121, 0.04347826086956519
	122, 0.05900621118012417
	123, 0.0993788819875776
	124, 0.04037267080745344
	125, 0.04658385093167705
	126, 0.05590062111801242
	127, 0.037267080745341574
	128, 0.05900621118012417
	129, 0.04037267080745344
	130, 0.037267080745341574
	131, 0.0496894409937888
	132, 0.08695652173913049
	133, 0.04658385093167705
	134, 0.021739130434782594
	135, 0.0714285714285714
	136, 0.04037267080745344
	137, 0.024844720496894457
	138, 0.037267080745341574
	139, 0.052795031055900665
	140, 0.04347826086956519
	141, 0.03105590062111796
	142, 0.04658385093167705
	143, 0.03105590062111796
	144, 0.024844720496894457
	145, 0.03105590062111796
	146, 0.03416149068322982
	147, 0.03416149068322982
	148, 0.04037267080745344
	149, 0.04037267080745344
Number of Epochs: 
	149
Weights:
	0) -0.20000000000000004
	1) -2.7755575615628914E-17
	2) -0.7
	3) 1.7000000000000002
	4) 0.7
	5) -0.10000000000000003
	6) 0.9999999999999999
	7) 0.6
	8) -0.9999999999999999
	9) 0.4
	10) -0.8999999999999999
	11) 0.10000000000000003
	12) 0.30000000000000004
	13) -0.4
	14) -0.6
	15) 0.20000000000000004
	16) -1.6000000000000003
**End Perceptron Data**

Time to train (in seconds): 0.069
Training set accuracy: 0.9596273291925466
Test set accuracy: 0.9424460431654677

Confusion matrix: (Row=target value, Col=predicted value)
@RELATION Untitled
@ATTRIBUTE 'democrat' CONTINUOUS
@ATTRIBUTE 'republican' CONTINUOUS
@DATA
81.0, 2.0
6.0, 50.0


